,level_0,Unnamed: 0,index,Symbol,Name,Exchange,Last,Industry,Time,Market Cap,Price/Book,P/E (ttm),P/S Ratio,P/CF Ratio,EBIT,Div Yield,Wtd Alpha,100D Rel Str
0,12,12,850,CELP,Cypress Energy Partners LP,NYSE,7.38,E&P MLP,16:02 ET,89386000.0,8.96,10.87,0.28629,5.1335,8105000.0,11.30%,25.1,50.90%
1,95,95,4632,WLFC,Willis Lease Fin C,NASDAQ,40.58,Transportation - Equip & Lease,16:01 ET,231211000.0,0.9,6.25,0.68984,2.0368,84731000.0,0.00%,23.5,54.03%
2,82,82,3977,SPWH,Sportsman's Wareh,NASDAQ,5.38,Retail - Apparel & Shoes,16:01 ET,221131000.0,3.34,9.38,0.2597,5.6286,46568000.0,0.00%,22.5,50.66%
3,21,21,1299,DLHC,Dlh Holdings Corp,NASDAQ,6.5,Staffing,16:00 ET,79317000.0,1.88,12.9,0.5826600000000001,9.9535,8741000.0,0.00%,17.7,53.55%
4,63,63,3257,PANL,Pangaea Logistics So,NASDAQ,3.16,Transportation - Ship,16:00 ET,143107000.0,0.62,6.04,0.38899,3.5091,17371031.0,0.00%,12.4,49.56%
5,44,44,2344,JILL,J. Jill Inc,NYSE,5.18,Retail - Apparel & Shoes,16:02 ET,223552000.0,1.1,7.32,0.32643,3.2060000000000004,69187000.0,0.00%,11.9,46.54%
6,32,32,1734,FRSH,Papa Murphys Hld Com,NASDAQ,5.39,Retail - Restaurants,16:00 ET,93143000.0,0.96,12.93,0.74884,6.4935,1412000.0,0.00%,10.1,51.07%
7,1,1,143,AIRT,Air T Inc,NASDAQ,30.52,Transportation - Air Freight,16:00 ET,61033000.0,2.74,27.98,0.33197,13.1675,4376378.0,0.00%,9.6,49.89%
8,2,2,195,ALSK,Alaska Commun Sys,NASDAQ,1.84,Wireline Regional,16:00 ET,95882000.0,0.59,11.69,0.42849,2.4714,11214000.0,0.00%,8.2,51.76%
9,62,62,3228,OTEL,Otelco Cl A,NASDAQ,16.05,Wireless National,16:00 ET,53527000.0,4.89,5.72,0.80715,3.1049,17508000.0,0.00%,6.0,50.35%
10,94,94,4553,VSI,Vitamin Shoppe Inc,NYSE,7.46,Food Items - Wholesale,16:02 ET,189167000.0,0.99,29.85,0.16719,3.0965,23731000.0,0.00%,6.0,51.21%
11,69,69,3562,RCKY,Rocky Brands Inc,NASDAQ,25.29,Shoes and Related Apparel,16:01 ET,185062000.0,1.28,13.98,0.76361,10.0167,9750890.0,1.91%,5.4,48.67%
12,37,37,2007,HEAR,Turtle Beach Corp,NASDAQ,11.34,Communications Components,16:04 ET,160605000.0,4.56,4.29,0.5959899999999999,3.4299,5261000.0,0.00%,2.0,45.85%
13,54,54,2910,NAII,Natural Alternativ,NASDAQ,10.77,Medical - Drugs,16:00 ET,82487000.0,1.13,8.24,0.63622,7.6603,10622000.0,0.00%,-1.3,50.92%
14,27,27,1454,EML,Eastern CO,NASDAQ,27.89,Protection - Safety,16:01 ET,171675000.0,1.83,12.29,0.75539,8.9597,12431454.0,1.60%,-2.8,50.52%
15,64,64,3261,PATI,Patriot TR HD,NASDAQ,18.94,Transportation - Truck,16:00 ET,62310000.0,1.19,45.36,0.55589,5.6924,2236000.0,0.00%,-2.9,48.68%
16,17,17,1185,CVGI,Commercial Vehicle G,NASDAQ,7.92,Auto - Truck Original Parts,16:01 ET,243929000.0,2.19,5.99,0.2839,4.1053,32794000.0,0.00%,-3.2,51.09%
17,79,79,3943,SOHO,Sotherly Hotels,NASDAQ,6.64,REIT - Equity Trust Other,16:00 ET,93936000.0,1.15,6.42,0.5332,4.3164,17494921.0,7.57%,-4.2,49.50%
18,39,39,2079,HPJ,Highpower Intl Inc,NASDAQ,3.26,Electronics - Misc Components,16:00 ET,50873000.0,0.72,3.91,0.1791,3.0165,22955768.0,0.00%,-4.5,52.28%
19,3,3,234,AMRK,A-Mark Precious Meta,NASDAQ,12.1,Precious Metals & Jewelry,16:00 ET,86833000.0,1.21,81.97,0.01136,13.7281,10480000.0,0.00%,-5.4,47.91%
20,65,65,3318,PERI,Perion Network Ltd,NASDAQ,2.56,Internet - Content,16:00 ET,69278000.0,0.48,4.81,0.28012,3.9703,9669000.0,0.00%,-6.0,45.60%
21,23,23,1370,DZSI,Dasan Zhone Solutions Inc,NASDAQ,10.97,Communication Network Software,16:00 ET,201641000.0,2.6,61.05,0.71768,32.8918,120000.0,0.00%,-7.1,47.90%
22,20,20,1284,DHX,Dice Holdings,NYSE,2.34,Internet - Content,16:02 ET,126599000.0,0.92,15.75,0.8296399999999999,7.5005,11656000.0,0.00%,-8.5,51.88%
23,34,34,1784,GASS,Stealthgas Inc,NASDAQ,3.52,Transportation - Ship,16:00 ET,139115000.0,0.24,344.0,0.83442,3.0585,15443227.0,0.00%,-9.0,51.21%
24,85,85,4097,SYNL,Synalloy Cp,NASDAQ,15.07,Steel - Pipe & Tube,16:01 ET,134490000.0,1.35,7.66,0.49923,5.144,2463867.0,1.66%,-9.5,47.21%
25,68,68,3482,PTSI,P A M Transport Sv,NASDAQ,45.5,Transportation - Truck,16:01 ET,247445000.0,1.95,9.94,0.50507,3.4922,18533000.0,0.00%,-10.3,48.22%
26,55,55,2919,NATR,Nature S Sunshine,NASDAQ,9.09,Medical - Drugs,16:01 ET,175577000.0,1.45,182.4,0.48181,19.9156,3511000.0,0.00%,-11.7,50.72%
27,42,42,2194,III,Information Svcs Grp,NASDAQ,3.88,Consulting,16:01 ET,170834000.0,2.08,16.45,0.60121,8.6796,8921000.0,0.00%,-11.8,46.86%
28,96,96,4674,WSTG,Wayside Technology,NASDAQ,11.4,Retail - Mail Order,16:00 ET,51019000.0,1.26,9.15,0.28243,9.8925,7813000.0,6.02%,-12.3,48.40%
29,29,29,1549,EVK,Ever Glory Intl Grp,NASDAQ,3.7,Textile - Apparel,16:00 ET,55493000.0,0.57,4.46,0.1269,2.8499,19518000.0,0.00%,-12.5,50.72%
30,5,5,343,ARTX,Arotech Corp,NASDAQ,2.87,Electronics - Military,16:04 ET,75858000.0,1.02,18.56,0.81834,10.0812,2638160.0,0.00%,-13.3,47.16%
31,43,43,2322,JAX,J. Alexander's Holdings Inc C,NYSE,9.82,Retail - Restaurants,16:02 ET,142248000.0,1.17,18.0,0.58958,7.0457,7242000.0,0.00%,-13.3,49.69%
32,51,51,2469,LAKE,Lakeland Inds Inc,NASDAQ,11.46,Protection - Safety,16:00 ET,92156000.0,1.07,28.27,0.936,14.5474,8506000.0,0.00%,-14.0,47.42%
33,13,13,1114,CRWS,Crown Crafts Inc,NASDAQ,5.16,Textile - Home Furnishings,16:00 ET,52230000.0,1.28,9.18,0.74046,7.8773,5583000.0,6.20%,-14.5,46.39%
34,61,61,3217,OSG,Overseas Shipholding Group Inc,NYSE,2.35,Transportation - Ship,16:02 ET,197812000.0,0.64,16.6,0.57981,3.0942,35752000.0,0.00%,-14.6,49.17%
35,28,28,1511,ESCA,Escalade Inc,NASDAQ,11.55,Leisure & Recreational Prdcts,16:01 ET,166516000.0,1.34,16.76,0.97769,7.0716,26869000.0,4.34%,-14.7,48.09%
36,31,31,1697,FNHC,Federated Natl Hldg,NASDAQ,16.07,Finance - Misc Services,16:01 ET,207996000.0,0.98,10.82,0.5306,10.0335,9275000.0,1.97%,-15.0,41.76%
37,87,87,4213,TLF,Tandy Leather Fctry,NASDAQ,6.16,Retail - Apparel & Shoes,16:00 ET,57214000.0,0.95,13.98,0.6774899999999999,9.5518,7368679.0,0.00%,-15.2,48.10%
38,50,50,2454,KTCC,Key Tronic Cp,NASDAQ,6.21,Computers - Peripheral Equpt,16:00 ET,66820000.0,0.54,12.94,0.14970999999999998,6.0556,5649000.0,0.00%,-15.6,45.91%
39,41,41,2176,IDT,IDT Corp,NYSE,6.42,Diversified Comm Services,16:02 ET,166891000.0,3.2,17.03,0.10988,4.9895,13008000.0,1.42%,-16.2,48.41%
40,9,9,647,BPI,Bridgepoint Education,NYSE,6.09,Schools,16:02 ET,168485000.0,1.39,10.87,0.39962,8.7396,18379000.0,0.00%,-17.8,43.75%
41,70,70,3565,RCMT,R C M Tech Inc,NASDAQ,3.95,Staffing,16:00 ET,51488000.0,1.83,12.25,0.25184,9.2984,5986000.0,0.00%,-20.6,48.12%
42,40,40,2130,HWCC,Houston Wire Cable,NASDAQ,6.0,Wire & Cable Products,16:00 ET,99678000.0,0.98,11.26,0.27792,8.1129,4604000.0,0.00%,-20.6,47.56%
43,36,36,1957,GVP,GSE Systems,NASDAQ,2.66,Computer - Software,16:00 ET,54144000.0,1.86,20.29,0.61058,37.7869,1571000.0,0.00%,-20.7,47.39%
44,11,11,728,CAAS,China Automotive Sys,NASDAQ,3.35,Auto - Truck Original Parts,16:00 ET,109172000.0,0.38,18.1,0.2117,3.2174,22128000.0,0.00%,-20.8,49.99%
45,7,7,430,AVNW,Aviat Networks Inc,NASDAQ,13.36,Wireless Equipment,16:00 ET,72523000.0,1.12,19.58,0.29107,7.7713,1295000.0,0.00%,-20.9,46.97%
46,84,84,4050,STRT,Strattec Security,NASDAQ,28.95,Auto - Truck Original Parts,16:00 ET,110196000.0,0.6,8.39,0.2509,3.98,18835000.0,1.90%,-22.1,46.37%
47,6,6,371,ASYS,Amtech Systems Inc,NASDAQ,5.23,Semi General,16:00 ET,74270000.0,0.82,260.5,0.42016,7.4996,9822000.0,0.00%,-22.1,48.94%
48,71,71,3590,RELL,Richardson Electrncs,NASDAQ,6.8,Electronics - Parts Distrib,16:00 ET,91336000.0,0.69,31.64,0.55642,16.9648,3353000.0,3.43%,-22.3,44.44%
49,67,67,3432,PRCP,Perceptron Inc,NASDAQ,7.45,Electronics - Measuring Inst,16:00 ET,72908000.0,1.42,18.97,0.84041,11.8084,5551000.0,0.00%,-22.9,46.45%
50,86,86,4163,TESS,Tessco Tech Inc,NASDAQ,15.67,Communications Components,16:00 ET,134645000.0,1.25,24.48,0.23568000000000006,15.6888,7901700.0,5.03%,-23.2,51.34%
51,78,78,3921,SND,Smart Sand Inc,NASDAQ,4.29,Oil - Field Services,16:01 ET,176360000.0,0.88,5.46,0.85321,2.6538,19167000.0,0.00%,-24.5,51.72%
52,33,33,1749,FSTR,Foster L B CO,NASDAQ,17.84,Steel - Producers,16:01 ET,189294000.0,1.58,19.17,0.30731,6.24,16419000.0,0.00%,-24.6,47.61%
53,91,91,4422,UONE,Urban One Inc,NASDAQ,2.09,Broadcast - Radio & TV,03/19/19,98226000.0,0.54,0.62,0.22476,1.3219,68719000.0,0.00%,-25.4,48.48%
54,52,52,2492,LCUT,Lifetime Brands Inc,NASDAQ,9.45,Consumer Prdts - Misc Discr,16:01 ET,196144000.0,0.7,55.35,0.27722,5.9959,15070000.0,1.80%,-25.4,45.50%
55,38,38,2065,HNRG,Hallador Energy CO,NASDAQ,5.2,Coal,16:01 ET,150620000.0,0.63,21.36,0.5501699999999999,2.9946,26295000.0,3.21%,-26.1,47.09%
56,89,89,4341,TWIN,Twin Disc Inc,NASDAQ,17.16,Machinery - General Industrial,16:00 ET,219818000.0,1.21,10.81,0.91203,8.6761,14702000.0,0.00%,-26.8,46.76%
57,59,59,3136,ODC,Oil-Dri Corp of America,NYSE,29.0,Chemical - Diversified,16:02 ET,220281000.0,1.74,24.29,0.8699100000000001,8.6266,15542000.0,3.30%,-28.3,47.29%
58,97,97,4763,ZEUS,Olympic Steel Inc,NASDAQ,15.79,Steel - Producers,16:01 ET,171174000.0,0.6,4.77,0.10782,3.178,56745000.0,0.51%,-28.3,45.14%
59,75,75,3790,SECO,Secoo Holding ADR,NASDAQ,8.52,Internet Commerce,16:00 ET,107396000.0,0.53,19.91,0.595,4.9826,94821000.0,0.00%,-28.6,47.08%
60,4,4,269,AOSL,Alpha and Omega Semi,NASDAQ,10.45,Electronics - Semiconductors,16:01 ET,248018000.0,0.59,16.46,0.62639,3.553,6477000.0,0.00%,-31.8,46.78%
61,48,48,2410,KIRK,Kirkland's Inc,NASDAQ,7.28,Retail - Home Furniture,16:01 ET,106383000.0,0.87,18.31,0.17657,8.6606,10091000.0,0.00%,-32.3,44.00%
62,80,80,3946,SOL,Renesola Ltd,NYSE,1.68,Solar,16:02 ET,64773000.0,0.51,10.06,0.4076,8.4947,7458201.0,0.00%,-33.4,47.46%
63,47,47,2403,KGJI,Kingold Jewelry Inc,NASDAQ,0.82,Retail - Jewelry,16:00 ET,56653000.0,0.16,1.13,0.022647068229425,1.4595,188313069.0,0.00%,-36.38,45.86%
64,16,16,1172,CULP,Culp Inc,NYSE,18.63,Textile - Home Furnishings,16:02 ET,223366000.0,1.36,17.07,0.7045,8.551,26977000.0,2.21%,-37.0,44.76%
65,76,76,3822,SGC,Superior Uniform Grp,NASDAQ,15.99,Uniform & Related,16:01 ET,239059000.0,1.64,13.73,0.7176899999999999,9.4684,24602000.0,2.57%,-37.6,44.87%
66,73,73,3727,SALM,Salem Media Grp Inc,NASDAQ,2.38,Broadcast - Radio & TV,16:00 ET,67819000.0,0.3,19.46,0.2521,3.0744,20480000.0,10.04%,-37.8,44.08%
67,25,25,1446,ELVT,Elevate Credit Inc,NYSE,4.26,Finance - Consumer Loans,16:02 ET,186006000.0,1.66,11.23,0.24746,5.0517,70863000.0,0.00%,-38.5,42.99%
68,30,30,1682,FLXS,Flexsteel Inds,NASDAQ,23.75,Furniture,16:01 ET,182658000.0,0.79,17.72,0.38871,8.3578,25126000.0,3.80%,-39.3,44.45%
69,18,18,1210,CXDC,China Xd Plastics CO,NASDAQ,2.35,Chemical - Plastics,15:54 ET,124105000.0,0.17,1.24,0.0917,0.7826,167516985.0,0.00%,-40.3,46.98%
70,88,88,4314,TSQ,Townsquare Media Llc,NYSE,5.72,Broadcast - Radio & TV,16:02 ET,108739000.0,0.32,6.55,0.2534,1.3209,63384000.0,5.23%,-40.6,47.38%
71,72,72,3689,RTW,Rtw Retailwinds Inc,NYSE,2.41,Textile - Apparel,16:01 ET,153711000.0,1.8,16.73,0.18225,5.6704,7333000.0,0.00%,-41.1,44.33%
72,15,15,1156,CTRN,Citi Trends Inc,NASDAQ,18.67,Retail - Apparel & Shoes,16:01 ET,237340000.0,1.23,11.48,0.31244,6.9782,23650000.0,1.74%,-42.0,44.22%
73,77,77,3839,SHLO,Shiloh Inds Inc,NASDAQ,5.53,Steel - Producers,16:01 ET,135378000.0,0.7,27.67,0.12083,2.2116,17603000.0,0.00%,-42.8,43.93%
74,46,46,2394,KEQU,Kewaunee Scientifi,NASDAQ,21.31,Industrial Scientific,16:00 ET,58228000.0,1.19,14.08,0.37189,7.3369,9779000.0,3.58%,-43.2,42.76%
75,93,93,4436,USAP,Universal Stainles,NASDAQ,16.23,Steel - Producers,16:01 ET,141231000.0,0.63,13.82,0.58232,5.0994,16899000.0,0.00%,-43.7,44.88%
76,49,49,2432,KODK,Eastman Kodak,NYSE,2.9,Electronics Products - Misc,16:02 ET,125617000.0,7.54,9.64,0.0835,1.0334,19000000.0,0.00%,-43.8,47.27%
77,10,10,681,BSET,Bassett Furniture,NASDAQ,17.01,Furniture,16:01 ET,178349000.0,0.97,17.87,0.40103,7.8323,12263000.0,2.96%,-43.9,42.87%
78,14,14,1143,CTG,Computer Task Gp Inc,NASDAQ,4.25,IT Services,16:00 ET,60679000.0,0.91,17.83,0.16551,10.2307,4422000.0,0.00%,-44.6,45.88%
79,56,56,2989,NHTC,Natural Hlth Trd,NASDAQ,12.71,Consumer Prdts - Misc Discr,16:01 ET,144816000.0,1.68,4.74,0.7700100000000001,4.0239,43059000.0,5.03%,-44.7,41.33%
80,92,92,4435,USAK,U S A Truck Inc,NASDAQ,14.45,Transportation - Truck,16:01 ET,122411000.0,1.58,9.72,0.23734,3.0803,18219000.0,0.00%,-45.4,44.31%
81,19,19,1234,DAC,Danaos Corp,NYSE,0.85,Transportation - Ship,16:02 ET,187725000.0,0.14,0.98,0.42168,0.3711,170461000.0,0.00%,-45.98,46.38%
82,24,24,1405,EDUC,Educational Dev Cp,NASDAQ,7.36,Publishing - Books,16:00 ET,60664000.0,2.27,8.49,0.5176,9.0191,8952200.0,2.70%,-46.2,44.93%
83,35,35,1908,GPX,Gp Strategies Corp,NYSE,12.24,Schools,16:02 ET,203915000.0,1.12,13.43,0.41029,7.1827,22821000.0,0.00%,-46.8,42.34%
84,66,66,3338,PFSW,Pfsweb Inc,NASDAQ,5.04,Business Services,16:00 ET,98038000.0,2.22,17.87,0.31652,5.985,598000.0,0.00%,-47.9,42.57%
85,81,81,3951,SORL,Sorl Auto Parts Inc,NASDAQ,2.86,Auto - Truck Original Parts,16:00 ET,57722000.0,0.29,2.46,0.1234,1.7135,34845118.0,0.00%,-51.4,45.94%
86,90,90,4385,UEPS,Net 1 Ueps Techs Inc,NASDAQ,3.73,Protection - Safety,16:01 ET,214832000.0,0.29,130.67,0.3635,1.5134,76834000.0,0.00%,-51.5,42.20%
87,83,83,3981,SQBG,Sequential Brands,NASDAQ,1.14,Shoes and Related Apparel,16:00 ET,73928000.0,0.22,3.61,0.45011,2.6326,88021000.0,0.00%,-53.2,47.24%
88,57,57,3004,NLS,Nautilus Group,NYSE,5.72,Retail - Mail Order,16:02 ET,165408000.0,0.94,11.56,0.43107,7.1582,22052000.0,0.00%,-55.2,37.65%
89,60,60,3211,ORN,Orion Group Holdings Inc,NYSE,3.19,Building - Heavy Construction,16:02 ET,93853000.0,0.43,87.5,0.1592,3.6778,1590000.0,0.00%,-59.7,41.33%
90,58,58,3011,NMM,Navios Maritime Partners LP,NYSE,0.82,Transportation - Ship,16:02 ET,144127000.0,0.19,4.23,0.6428699999999999,1.1817,23374000.0,9.30%,-60.36,41.45%
91,8,8,495,BBGI,Beasley Brdcst Gr,NASDAQ,3.83,Broadcast - Radio & TV,16:01 ET,105038000.0,0.4,15.8,0.4229100000000001,7.2693,34183056.0,5.25%,-61.4,42.64%
92,53,53,2541,LKSD,Lsc Communications Inc,NYSE,6.19,Printing - Commercial,16:03 ET,206226000.0,1.21,5.25,0.05625,1.1572,92000000.0,16.80%,-66.9,41.65%
93,74,74,3782,SDLP,Seadrill Partners Llc,NYSE,0.9,Oil & Gas - Drilling,16:02 ET,70009000.0,0.03,1.25,0.06815,0.2029,454700000.0,4.30%,-68.55,37.06%
94,0,0,3,AAC,Aac Holdings Inc,NYSE,2.01,Medical - Outpatient & Hm Care,16:03 ET,52648000.0,0.46,9.67,0.1554,1.5048,17026000.0,0.00%,-72.4,41.29%
95,22,22,1300,DLNG,Dynagas Lng Partners LP,NYSE,2.32,Transportation - Services,16:02 ET,84550000.0,0.44,10.96,0.7348899999999999,1.5275,57114000.0,10.50%,-75.5,35.45%
96,45,45,2360,JP,Jupai Holdings Ltd,NYSE,3.9,Finance - Investment Mgmt,16:02 ET,124639000.0,0.44,2.59,0.5407,1.8172,523567834.0,15.03%,-75.7,41.43%
97,26,26,1452,EMES,Emerge Energy Services LP,NYSE,1.84,Oil - Field Services,16:02 ET,60520000.0,1.03,5.12,0.1615,2.8682,11328000.0,0.00%,-76.4,42.97%
